%YAML 1.1
%TAG !u! tag:unity3d.com,2011:
--- !u!1 &8315147496927835514
GameObject:
  m_ObjectHideFlags: 0
  m_CorrespondingSourceObject: {fileID: 0}
  m_PrefabInstance: {fileID: 0}
  m_PrefabAsset: {fileID: 0}
  serializedVersion: 6
  m_Component:
  - component: {fileID: 8315147496927835508}
  - component: {fileID: 8315147496927835515}
  - component: {fileID: 1752588838}
  - component: {fileID: 1752588839}
  m_Layer: 0
  m_Name: GameManager
  m_TagString: Untagged
  m_Icon: {fileID: 0}
  m_NavMeshLayer: 0
  m_StaticEditorFlags: 0
  m_IsActive: 1
--- !u!4 &8315147496927835508
Transform:
  m_ObjectHideFlags: 0
  m_CorrespondingSourceObject: {fileID: 0}
  m_PrefabInstance: {fileID: 0}
  m_PrefabAsset: {fileID: 0}
  m_GameObject: {fileID: 8315147496927835514}
  m_LocalRotation: {x: 0, y: 0, z: 0, w: 1}
  m_LocalPosition: {x: 0, y: 0, z: 0}
  m_LocalScale: {x: 1, y: 1, z: 1}
  m_Children: []
  m_Father: {fileID: 0}
  m_RootOrder: 0
  m_LocalEulerAnglesHint: {x: 0, y: 0, z: 0}
--- !u!114 &8315147496927835515
MonoBehaviour:
  m_ObjectHideFlags: 0
  m_CorrespondingSourceObject: {fileID: 0}
  m_PrefabInstance: {fileID: 0}
  m_PrefabAsset: {fileID: 0}
  m_GameObject: {fileID: 8315147496927835514}
  m_Enabled: 1
  m_EditorHideFlags: 0
  m_Script: {fileID: 11500000, guid: 83950210a5ab6944b9961813cf1527dd, type: 3}
  m_Name: 
  m_EditorClassIdentifier: 
  enemy: {fileID: 1962867797164210274, guid: a3a435ff7a09de644abf5854d2579f8c, type: 3}
  screenSize: 100
  cameraShakeDuration: 0.15
  cameraShakeMagnitude: 0.4
  planetScale: 10
  targetOffset: 0
  player: {fileID: 0}
  timeTillNextShot: 0.5
  explosionSize: 5
  explosionDurration: 30
  startingExplosionSize: 0.05
  maxPlanetHealth: 4
  currentPlanetHealth: 0
  minTimer: 0.5
  maxTimer: 3
  enemyMovementSpeedMin: 3
  enemyMovementSpeedMax: 5
  powerUpPrefab: {fileID: 2222603469455791475, guid: 6c2a2f0ad37500245ba5cec6ea74338a,
    type: 3}
  traversePowerUpDistance: 70
  minPowerUpDistance: 7
  maxPowerUpDistance: 20
  am: {fileID: 0}
--- !u!50 &1752588838
Rigidbody2D:
  serializedVersion: 4
  m_ObjectHideFlags: 0
  m_CorrespondingSourceObject: {fileID: 0}
  m_PrefabInstance: {fileID: 0}
  m_PrefabAsset: {fileID: 0}
  m_GameObject: {fileID: 8315147496927835514}
  m_BodyType: 1
  m_Simulated: 1
  m_UseFullKinematicContacts: 0
  m_UseAutoMass: 0
  m_Mass: 1
  m_LinearDrag: 0
  m_AngularDrag: 0.05
  m_GravityScale: 1
  m_Material: {fileID: 0}
  m_Interpolate: 0
  m_SleepingMode: 1
  m_CollisionDetection: 0
  m_Constraints: 0
--- !u!58 &1752588839
CircleCollider2D:
  m_ObjectHideFlags: 0
  m_CorrespondingSourceObject: {fileID: 0}
  m_PrefabInstance: {fileID: 0}
  m_PrefabAsset: {fileID: 0}
  m_GameObject: {fileID: 8315147496927835514}
  m_Enabled: 1
  m_Density: 1
  m_Material: {fileID: 0}
  m_IsTrigger: 1
  m_UsedByEffector: 0
  m_UsedByComposite: 0
  m_Offset: {x: 0, y: 0}
  serializedVersion: 2
  m_Radius: 5
